%YAML 1.1
%TAG !u! tag:unity3d.com,2011:
--- !u!1001 &5479098553136735723
PrefabInstance:
  m_ObjectHideFlags: 0
  serializedVersion: 2
  m_Modification:
    m_TransformParent: {fileID: 0}
    m_Modifications:
    - target: {fileID: 5606817138034541833, guid: 910235ad44fc4fd4e9170bc2ff474a3d,
        type: 3}
      propertyPath: m_Controller
      value: 
      objectReference: {fileID: 9100000, guid: 5d1f402962f6bc54a8325a66542a5ec5, type: 2}
    - target: {fileID: 6066729180733567583, guid: 910235ad44fc4fd4e9170bc2ff474a3d,
        type: 3}
      propertyPath: m_Sprite
      value: 
      objectReference: {fileID: 3037429506262628118, guid: d609c9750a8d2f94da576c0e8cb1d50c,
        type: 3}
    - target: {fileID: 6066729180733567583, guid: 910235ad44fc4fd4e9170bc2ff474a3d,
        type: 3}
      propertyPath: m_Color.b
      value: 0.41313633
      objectReference: {fileID: 0}
    - target: {fileID: 6066729180733567583, guid: 910235ad44fc4fd4e9170bc2ff474a3d,
        type: 3}
      propertyPath: m_Color.g
      value: 0.41313633
      objectReference: {fileID: 0}
    - target: {fileID: 6066729180733567583, guid: 910235ad44fc4fd4e9170bc2ff474a3d,
        type: 3}
      propertyPath: m_Color.r
      value: 0.41509432
      objectReference: {fileID: 0}
    - target: {fileID: 6066729181281231048, guid: 910235ad44fc4fd4e9170bc2ff474a3d,
        type: 3}
      propertyPath: m_Name
      value: Pink Portal
      objectReference: {fileID: 0}
    - target: {fileID: 6066729181281231049, guid: 910235ad44fc4fd4e9170bc2ff474a3d,
        type: 3}
      propertyPath: m_RootOrder
      value: 0
      objectReference: {fileID: 0}
    - target: {fileID: 6066729181281231049, guid: 910235ad44fc4fd4e9170bc2ff474a3d,
        type: 3}
      propertyPath: m_LocalPosition.x
      value: -12.36
      objectReference: {fileID: 0}
    - target: {fileID: 6066729181281231049, guid: 910235ad44fc4fd4e9170bc2ff474a3d,
        type: 3}
      propertyPath: m_LocalPosition.y
      value: 3.92
      objectReference: {fileID: 0}
    - target: {fileID: 6066729181281231049, guid: 910235ad44fc4fd4e9170bc2ff474a3d,
        type: 3}
      propertyPath: m_LocalPosition.z
      value: -2.3256457
      objectReference: {fileID: 0}
    - target: {fileID: 6066729181281231049, guid: 910235ad44fc4fd4e9170bc2ff474a3d,
        type: 3}
      propertyPath: m_LocalRotation.w
      value: 1
      objectReference: {fileID: 0}
    - target: {fileID: 6066729181281231049, guid: 910235ad44fc4fd4e9170bc2ff474a3d,
        type: 3}
      propertyPath: m_LocalRotation.x
      value: 0
      objectReference: {fileID: 0}
    - target: {fileID: 6066729181281231049, guid: 910235ad44fc4fd4e9170bc2ff474a3d,
        type: 3}
      propertyPath: m_LocalRotation.y
      value: 0
      objectReference: {fileID: 0}
    - target: {fileID: 6066729181281231049, guid: 910235ad44fc4fd4e9170bc2ff474a3d,
        type: 3}
      propertyPath: m_LocalRotation.z
      value: 0
      objectReference: {fileID: 0}
    - target: {fileID: 6066729181281231049, guid: 910235ad44fc4fd4e9170bc2ff474a3d,
        type: 3}
      propertyPath: m_LocalEulerAnglesHint.x
      value: 0
      objectReference: {fileID: 0}
    - target: {fileID: 6066729181281231049, guid: 910235ad44fc4fd4e9170bc2ff474a3d,
        type: 3}
      propertyPath: m_LocalEulerAnglesHint.y
      value: 0
      objectReference: {fileID: 0}
    - target: {fileID: 6066729181281231049, guid: 910235ad44fc4fd4e9170bc2ff474a3d,
        type: 3}
      propertyPath: m_LocalEulerAnglesHint.z
      value: 0
      objectReference: {fileID: 0}
    - target: {fileID: 6066729181281231050, guid: 910235ad44fc4fd4e9170bc2ff474a3d,
        type: 3}
      propertyPath: Color
      value: 0
      objectReference: {fileID: 0}
    m_RemovedComponents: []
  m_SourcePrefab: {fileID: 100100000, guid: 910235ad44fc4fd4e9170bc2ff474a3d, type: 3}
