%YAML 1.1
%TAG !u! tag:unity3d.com,2011:
--- !u!1001 &1258776189558524011
PrefabInstance:
  m_ObjectHideFlags: 0
  serializedVersion: 2
  m_Modification:
    m_TransformParent: {fileID: 0}
    m_Modifications:
    - target: {fileID: 2539663872195870241, guid: 987546cf5ba68a34c8e6c93b016f6b1b,
        type: 3}
      propertyPath: TrailModule.ratio
      value: 1
      objectReference: {fileID: 0}
    - target: {fileID: 2539663872195870241, guid: 987546cf5ba68a34c8e6c93b016f6b1b,
        type: 3}
      propertyPath: NoiseModule.sizeAmount.scalar
      value: 0.02
      objectReference: {fileID: 0}
    - target: {fileID: 2539663872195870241, guid: 987546cf5ba68a34c8e6c93b016f6b1b,
        type: 3}
      propertyPath: ColorModule.gradient.minMaxState
      value: 3
      objectReference: {fileID: 0}
    - target: {fileID: 2539663872195870241, guid: 987546cf5ba68a34c8e6c93b016f6b1b,
        type: 3}
      propertyPath: NoiseModule.positionAmount.scalar
      value: 0.08
      objectReference: {fileID: 0}
    - target: {fileID: 2539663872195870241, guid: 987546cf5ba68a34c8e6c93b016f6b1b,
        type: 3}
      propertyPath: TrailModule.widthOverTrail.scalar
      value: 0.5
      objectReference: {fileID: 0}
    - target: {fileID: 2539663872195870241, guid: 987546cf5ba68a34c8e6c93b016f6b1b,
        type: 3}
      propertyPath: EmissionModule.rateOverTime.scalar
      value: 100
      objectReference: {fileID: 0}
    - target: {fileID: 2539663872195870241, guid: 987546cf5ba68a34c8e6c93b016f6b1b,
        type: 3}
      propertyPath: ColorModule.gradient.maxGradient.atime2
      value: 52621
      objectReference: {fileID: 0}
    - target: {fileID: 2539663872195870241, guid: 987546cf5ba68a34c8e6c93b016f6b1b,
        type: 3}
      propertyPath: ColorModule.gradient.maxGradient.key0.b
      value: 0.075694196
      objectReference: {fileID: 0}
    - target: {fileID: 2539663872195870241, guid: 987546cf5ba68a34c8e6c93b016f6b1b,
        type: 3}
      propertyPath: ColorModule.gradient.maxGradient.key0.g
      value: 0.075694196
      objectReference: {fileID: 0}
    - target: {fileID: 2539663872195870241, guid: 987546cf5ba68a34c8e6c93b016f6b1b,
        type: 3}
      propertyPath: ColorModule.gradient.maxGradient.key0.r
      value: 0.254717
      objectReference: {fileID: 0}
    - target: {fileID: 2539663872195870241, guid: 987546cf5ba68a34c8e6c93b016f6b1b,
        type: 3}
      propertyPath: ColorModule.gradient.maxGradient.key1.a
      value: 0.67058825
      objectReference: {fileID: 0}
    - target: {fileID: 2539663872195870241, guid: 987546cf5ba68a34c8e6c93b016f6b1b,
        type: 3}
      propertyPath: ColorModule.gradient.maxGradient.key1.b
      value: 0.6037736
      objectReference: {fileID: 0}
    - target: {fileID: 2539663872195870241, guid: 987546cf5ba68a34c8e6c93b016f6b1b,
        type: 3}
      propertyPath: ColorModule.gradient.maxGradient.key1.g
      value: 0.46520793
      objectReference: {fileID: 0}
    - target: {fileID: 2539663872195870241, guid: 987546cf5ba68a34c8e6c93b016f6b1b,
        type: 3}
      propertyPath: ColorModule.gradient.maxGradient.key1.r
      value: 0.27625492
      objectReference: {fileID: 0}
    - target: {fileID: 2539663872195870241, guid: 987546cf5ba68a34c8e6c93b016f6b1b,
        type: 3}
      propertyPath: ColorModule.gradient.maxGradient.key2.a
      value: 0.8784314
      objectReference: {fileID: 0}
    - target: {fileID: 2539663872195870241, guid: 987546cf5ba68a34c8e6c93b016f6b1b,
        type: 3}
      propertyPath: ColorModule.gradient.minGradient.key0.b
      value: 0.3018868
      objectReference: {fileID: 0}
    - target: {fileID: 2539663872195870241, guid: 987546cf5ba68a34c8e6c93b016f6b1b,
        type: 3}
      propertyPath: ColorModule.gradient.minGradient.key0.g
      value: 0.18756421
      objectReference: {fileID: 0}
    - target: {fileID: 2539663872195870241, guid: 987546cf5ba68a34c8e6c93b016f6b1b,
        type: 3}
      propertyPath: ColorModule.gradient.minGradient.key0.r
      value: 0.03844785
      objectReference: {fileID: 0}
    - target: {fileID: 2539663872195870241, guid: 987546cf5ba68a34c8e6c93b016f6b1b,
        type: 3}
      propertyPath: ColorModule.gradient.minGradient.key1.b
      value: 0.8018868
      objectReference: {fileID: 0}
    - target: {fileID: 2539663872195870241, guid: 987546cf5ba68a34c8e6c93b016f6b1b,
        type: 3}
      propertyPath: ColorModule.gradient.minGradient.key1.g
      value: 0.69519216
      objectReference: {fileID: 0}
    - target: {fileID: 2539663872195870241, guid: 987546cf5ba68a34c8e6c93b016f6b1b,
        type: 3}
      propertyPath: ColorModule.gradient.minGradient.key1.r
      value: 0.55602527
      objectReference: {fileID: 0}
    - target: {fileID: 3704331093275831979, guid: 987546cf5ba68a34c8e6c93b016f6b1b,
        type: 3}
      propertyPath: BulletColor
      value: 1
      objectReference: {fileID: 0}
    - target: {fileID: 3704331093275831979, guid: 987546cf5ba68a34c8e6c93b016f6b1b,
        type: 3}
      propertyPath: BulletContactParticlePrefab
      value: 
      objectReference: {fileID: 6136339775865452200, guid: 9ad1c79b46208104cb401e8dcfc87c54,
        type: 3}
    - target: {fileID: 4105051478253475742, guid: 987546cf5ba68a34c8e6c93b016f6b1b,
        type: 3}
      propertyPath: m_Materials.Array.data[0]
      value: 
      objectReference: {fileID: 2100000, guid: d731b6e3ffdfe0643bb4249dcffa84e6, type: 2}
    - target: {fileID: 4105051478253475742, guid: 987546cf5ba68a34c8e6c93b016f6b1b,
        type: 3}
      propertyPath: m_Materials.Array.data[1]
      value: 
      objectReference: {fileID: 2100000, guid: d731b6e3ffdfe0643bb4249dcffa84e6, type: 2}
    - target: {fileID: 4791745478077605446, guid: 987546cf5ba68a34c8e6c93b016f6b1b,
        type: 3}
      propertyPath: m_RootOrder
      value: 0
      objectReference: {fileID: 0}
    - target: {fileID: 4791745478077605446, guid: 987546cf5ba68a34c8e6c93b016f6b1b,
        type: 3}
      propertyPath: m_LocalPosition.x
      value: -16.156551
      objectReference: {fileID: 0}
    - target: {fileID: 4791745478077605446, guid: 987546cf5ba68a34c8e6c93b016f6b1b,
        type: 3}
      propertyPath: m_LocalPosition.y
      value: 14.314057
      objectReference: {fileID: 0}
    - target: {fileID: 4791745478077605446, guid: 987546cf5ba68a34c8e6c93b016f6b1b,
        type: 3}
      propertyPath: m_LocalPosition.z
      value: 0
      objectReference: {fileID: 0}
    - target: {fileID: 4791745478077605446, guid: 987546cf5ba68a34c8e6c93b016f6b1b,
        type: 3}
      propertyPath: m_LocalRotation.w
      value: 1
      objectReference: {fileID: 0}
    - target: {fileID: 4791745478077605446, guid: 987546cf5ba68a34c8e6c93b016f6b1b,
        type: 3}
      propertyPath: m_LocalRotation.x
      value: 0
      objectReference: {fileID: 0}
    - target: {fileID: 4791745478077605446, guid: 987546cf5ba68a34c8e6c93b016f6b1b,
        type: 3}
      propertyPath: m_LocalRotation.y
      value: 0
      objectReference: {fileID: 0}
    - target: {fileID: 4791745478077605446, guid: 987546cf5ba68a34c8e6c93b016f6b1b,
        type: 3}
      propertyPath: m_LocalRotation.z
      value: 0
      objectReference: {fileID: 0}
    - target: {fileID: 4791745478077605446, guid: 987546cf5ba68a34c8e6c93b016f6b1b,
        type: 3}
      propertyPath: m_LocalEulerAnglesHint.x
      value: 0
      objectReference: {fileID: 0}
    - target: {fileID: 4791745478077605446, guid: 987546cf5ba68a34c8e6c93b016f6b1b,
        type: 3}
      propertyPath: m_LocalEulerAnglesHint.y
      value: 0
      objectReference: {fileID: 0}
    - target: {fileID: 4791745478077605446, guid: 987546cf5ba68a34c8e6c93b016f6b1b,
        type: 3}
      propertyPath: m_LocalEulerAnglesHint.z
      value: 0
      objectReference: {fileID: 0}
    - target: {fileID: 5247037839143543458, guid: 987546cf5ba68a34c8e6c93b016f6b1b,
        type: 3}
      propertyPath: m_Name
      value: Swapper Bullet - Blue
      objectReference: {fileID: 0}
    m_RemovedComponents: []
  m_SourcePrefab: {fileID: 100100000, guid: 987546cf5ba68a34c8e6c93b016f6b1b, type: 3}
